<?xml version="1.0" encoding="utf-8"?>
<!-- Generator: Adobe Illustrator 16.0.0, SVG Export Plug-In . SVG Version: 6.00 Build 0)  -->
<!DOCTYPE svg PUBLIC "-//W3C//DTD SVG 1.1//EN" "http://www.w3.org/Graphics/SVG/1.1/DTD/svg11.dtd">
<svg version="1.1" id="Layer_1" xmlns="http://www.w3.org/2000/svg" xmlns:xlink="http://www.w3.org/1999/xlink" x="0px" y="0px"
	 width="30px" height="30px" viewBox="0 0 30 30" enable-background="new 0 0 30 30" xml:space="preserve">
<path fill="#FFFFFF" d="M11.029,5.812c0,0.757,0,4.132,0,4.132H8.002v5.052h3.027v15.013h6.218V14.995h4.172
	c0,0,0.392-2.422,0.58-5.071c-0.543,0-4.729,0-4.729,0s0-2.938,0-3.453c0-0.517,0.678-1.211,1.35-1.211c0.669,0,2.078,0,3.388,0
	c0-0.688,0-3.064,0-5.26c-1.743,0-3.729,0-4.604,0C10.875,0,11.029,5.057,11.029,5.812z"/>
</svg>
