<?xml version="1.0" encoding="utf-8"?>
<!-- Generator: Adobe Illustrator 16.0.0, SVG Export Plug-In . SVG Version: 6.00 Build 0)  -->
<!DOCTYPE svg PUBLIC "-//W3C//DTD SVG 1.1//EN" "http://www.w3.org/Graphics/SVG/1.1/DTD/svg11.dtd">
<svg version="1.1" id="Layer_1" xmlns="http://www.w3.org/2000/svg" xmlns:xlink="http://www.w3.org/1999/xlink" x="0px" y="0px"
	 width="30px" height="30px" viewBox="0 0 30 30" enable-background="new 0 0 30 30" xml:space="preserve">
<path fill="#FFFFFF" d="M26.982,21.063c0,3.271-2.65,5.92-5.92,5.92H8.937c-3.269,0-5.919-2.649-5.919-5.92V8.937
	c0-3.269,2.65-5.919,5.919-5.919h12.125c3.27,0,5.92,2.65,5.92,5.919V21.063z M21.063,0H8.937C4.009,0,0,4.009,0,8.937v12.125
	C0,25.99,4.009,30,8.937,30h12.125C25.991,30,30,25.99,30,21.063V8.937C30,4.009,25.991,0,21.063,0z"/>
<path fill="#FFFFFF" d="M15,19.741c-2.619,0-4.741-2.122-4.741-4.741s2.123-4.741,4.741-4.741s4.741,2.123,4.741,4.741
	S17.618,19.741,15,19.741z M15,7.241c-4.278,0-7.759,3.481-7.759,7.759c0,4.277,3.481,7.759,7.759,7.759
	c4.277,0,7.759-3.479,7.759-7.759C22.759,10.721,19.277,7.241,15,7.241z"/>
<circle fill="#FFFFFF" cx="22.773" cy="7.299" r="1.859"/>
</svg>
