<?xml version="1.0" encoding="utf-8"?>
<!-- Generator: Adobe Illustrator 16.0.0, SVG Export Plug-In . SVG Version: 6.00 Build 0)  -->
<!DOCTYPE svg PUBLIC "-//W3C//DTD SVG 1.1//EN" "http://www.w3.org/Graphics/SVG/1.1/DTD/svg11.dtd">
<svg version="1.1" id="Layer_2_copy" xmlns="http://www.w3.org/2000/svg" xmlns:xlink="http://www.w3.org/1999/xlink" x="0px"
	 y="0px" width="25px" height="25px" viewBox="0 0 25 25" enable-background="new 0 0 25 25" xml:space="preserve">
<path d="M19.889,5.654h-3.836V5.029c0-1.118-0.91-2.029-2.029-2.029h-3.646C9.258,3,8.348,3.911,8.348,5.029v0.625H4.512
	C4.227,5.654,4,5.881,4,6.166C4,6.45,4.227,6.678,4.512,6.678h0.925v12.025c0,1.509,1.229,2.737,2.738,2.737h8.052
	c1.51,0,2.736-1.229,2.736-2.737V6.678h0.926c0.285,0,0.512-0.228,0.512-0.512C20.4,5.881,20.174,5.654,19.889,5.654 M9.373,5.029
	c0-0.554,0.45-1.005,1.004-1.005h3.646c0.555,0,1.006,0.451,1.006,1.005v0.625H9.373V5.029z M17.939,18.703
	c0,0.944-0.77,1.714-1.713,1.714H8.175c-0.945,0-1.714-0.77-1.714-1.714V6.678h11.482v12.025H17.939z"/>
<path d="M12.201,18.581c0.284,0,0.511-0.227,0.511-0.511V9.024c0-0.284-0.228-0.512-0.511-0.512c-0.284,0-0.512,0.228-0.512,0.512
	v9.042C11.689,18.351,11.917,18.581,12.201,18.581"/>
<path d="M8.86,18.018c0.284,0,0.513-0.228,0.513-0.513V9.585c0-0.284-0.229-0.512-0.513-0.512c-0.285,0-0.512,0.228-0.512,0.512
	v7.919C8.348,17.79,8.579,18.018,8.86,18.018"/>
<path d="M15.539,18.018c0.285,0,0.514-0.228,0.514-0.513V9.585c0-0.284-0.229-0.512-0.514-0.512c-0.281,0-0.51,0.228-0.51,0.512
	v7.919C15.029,17.79,15.258,18.018,15.539,18.018"/>
</svg>
